{
  "MaxTransferErrorAmount": 100,
  "DefaultLanguageCode": "en",
  "SmtpHost": "",
  "SmtpPort": 25,
  "SmtpEnableSsl": false,
  "SmtpUserName": "",
  "SmtpUserPassword": "",
  "MailFrom": "",
  "SmtpHFrom": "",
  "DotStatSuiteCoreCommonDbConnectionString": "Data Source=localhost;Initial Catalog=CommonDb;User ID=testLoginCommon;Password=testLogin(\\!)Password",
  "spacesInternal": [
    {
      "Id": "design",
      "DotStatSuiteCoreStructDbConnectionString": "Data Source=localhost;Initial Catalog=DesignStructDb;User ID=testLoginDesignStruct;Password=testLogin(\\!)Password",
      "DotStatSuiteCoreDataDbConnectionString": "Data Source=localhost;Initial Catalog=DesignDataDb;User ID=testLoginDesignData;Password=testLogin(\\!)Password",
      "DataImportTimeOutInMinutes": 60,
      "DatabaseCommandTimeoutInSec": 360,
      "AutoLog2DB": false,
      "AutoLog2DBLogLevel": "notice",
      "EmailLogLevel": "notice"
    },
    {
      "Id": "disseminate",
      "DotStatSuiteCoreStructDbConnectionString": "Data Source=localhost;Initial Catalog=DisseminateStructDb;User ID=testLoginDisseminateStruct;Password=testLogin(\\!)Password",
      "DotStatSuiteCoreDataDbConnectionString": "Data Source=localhost;Initial Catalog=DisseminateDataDb;User ID=testLoginDisseminateData;Password=testLogin(\\!)Password",
      "DataImportTimeOutInMinutes": 60,
      "DatabaseCommandTimeoutInSec": 360,
      "AutoLog2DB": false,
      "AutoLog2DBLogLevel": "notice",
      "EmailLogLevel": "notice"
    }
  ]
}
